…
glm_fit <- parsnip::linear_reg(penalty = 1) %>%
  parsnip::set_engine("glmnet") %>%
  parsnip::fit_xy(
    x = ames_training_data %>% select(Longitude, Latitude),
    y = ames_training_data %>% pull(Sale_Price)
  )
```

Use the `glm_fit` model to make predictions on the test dataset:

``` r
glm_predictions <- predict(glm_fit, new_data = ames_testing_data)
glm_predictions
#> # A tibble: 588 x 1
#>    .pred
#>    <dbl>
#>  1  5.22
#>  2  5.22
#>  3  5.22
#>  4  5.22
#>  5  5.22
#>  6  5.22
#>  7  5.22
#>  8  5.22
#>  9  5.22
#> 10  5.22
#> # … with 578 more rows
```
…
